<svg xmlns="http://www.w3.org/2000/svg" width="107.66" height="111.64" viewBox="0 0 107.66 111.64">
    <defs>
        <style>
            .cls-1{fill:#ffcf01}.cls-2{fill:#fff}.cls-3{fill:#4bc2c6}
        </style>
    </defs>
    <g id="dokter_umum" data-name="dokter umum" transform="translate(-72.571 -66.46)">
        <ellipse id="Ellipse_75" cx="13.875" cy="13.875" class="cls-1" data-name="Ellipse 75" rx="13.875" ry="13.875" transform="translate(111.049 84.818)"/>
        <path id="Path_613" d="M246.057 365.11a2.925 2.925 0 0 0-1.7.555 16.435 16.435 0 0 1-17.745 0 2.917 2.917 0 0 0-1.7-.555 2.936 2.936 0 0 0-1.705 5.326 22.24 22.24 0 0 0 24.555 0 2.934 2.934 0 0 0-1.705-5.324z" class="cls-2" data-name="Path 613" transform="translate(-107.977 -215.844)"/>
        <path id="Path_614" d="M250.637 167.782c-1.153 0-1.741-.33-1.86-1.472a2.931 2.931 0 0 0-2.92-2.637 2.807 2.807 0 0 0-.3.017 2.936 2.936 0 0 0-2.6 3.239 7.483 7.483 0 0 0 7.7 6.724 8.121 8.121 0 1 0-2.925-15.7 2.936 2.936 0 0 0 1.051 5.673 2.907 2.907 0 0 0 1.06-.2 2.251 2.251 0 1 1 .806 4.353z" class="cls-2" data-name="Path 614" transform="translate(-123.129 -65.732)"/>
        <path id="Path_615" d="M186.013 127.694a11.556 11.556 0 0 0-5.021-9.907 9.186 9.186 0 0 0-3.435-1.32h-.064l-.322-.047a1.791 1.791 0 0 1-1.386-1.6V99.332c0-6.735-5.362-14.016-14.712-19.983-8.6-5.484-19.242-8.889-27.78-8.889-7.872 0-18.513 3.4-27.106 8.676a43.115 43.115 0 0 0-10.858 9.119c-3 3.69-4.525 7.417-4.525 11.091v24.644c-.053 1.054-.075 2-.075 2.884a62.83 62.83 0 0 0 .627 8.817c.3 2.523-1.78.771-1.78.771-2.842-2.681-3.125-7.126-3.125-8.753a7 7 0 0 1 .616-2.964l-.039-.017a2.875 2.875 0 0 0 .2-1.048 2.931 2.931 0 0 0-5.759-.765 12.954 12.954 0 0 0-.9 4.783 18.237 18.237 0 0 0 3.631 11.53 13.567 13.567 0 0 0 7.342 4.741 3.688 3.688 0 0 1 2.315 2.526 57.612 57.612 0 0 0 14.557 23.679 41.452 41.452 0 0 0 11.645 7.922 31.675 31.675 0 0 0 26.457 0 38.558 38.558 0 0 0 6.316-3.577l-.017-.033a2.906 2.906 0 1 0-2.715-5.138l-.067.047a2.771 2.771 0 0 0-.4.277 36.326 36.326 0 0 1-2.5 1.578 26.779 26.779 0 0 1-27.727 0 40 40 0 0 1-11.723-10.52 53.1 53.1 0 0 1-8.1-15.419 57.783 57.783 0 0 1-3.017-18.455c0-.885.025-1.772.072-2.709V99.332c0-4.805 4.714-10.558 12.621-15.388 7.683-4.7 16.88-7.617 24-7.617s16.32 2.92 24 7.617c7.9 4.83 12.619 10.583 12.619 15.388v9.222c0 2.143-1.226 1.808-1.8 1.533l-.277-.155a55.968 55.968 0 0 0-14.523-5.34c-1.519-.363-1.567-2.185-1.567-2.185a18.43 18.43 0 0 0-31.179-13.032v.014a2.889 2.889 0 0 0 3.327 4.683l.1-.061a3.129 3.129 0 0 0 .344-.252c.2-.155.435-.341.627-.494a12.577 12.577 0 1 1-3.912 6.483.675.675 0 0 1 .039-.147 3.065 3.065 0 0 0 .147-.477 3.075 3.075 0 0 0 .061-.6 2.95 2.95 0 0 0-5.859-.48 18.427 18.427 0 0 0-.6 4.658 2.386 2.386 0 0 1-1.705 1.9 61 61 0 0 0-8.49 2.565c-.738.277-1.237.471-1.544.6a3.327 3.327 0 0 0-.324.136l-.061.028a2.947 2.947 0 0 0 1.181 5.562h.175a2.936 2.936 0 0 0 1.048-.177v.019c.238-.1.482-.2.726-.3l.726-.3a55.208 55.208 0 0 1 8.249-2.5 2.361 2.361 0 0 1 2.36 1.323 18.4 18.4 0 0 0 32.441-.261 2.36 2.36 0 0 1 2.459-.979 47.954 47.954 0 0 1 16.381 6.84 4.492 4.492 0 0 1 1.492 3.6v3.252a.371.371 0 0 0 0 .058.069.069 0 0 0 0 .022v.05c.036.8.072 1.744.072 2.726a57.784 57.784 0 0 1-3.017 18.455 53.791 53.791 0 0 1-6.7 13.456l-.6.854a2.949 2.949 0 0 0-.433.624 2.9 2.9 0 0 0 5.044 2.864 60.642 60.642 0 0 0 9.1-18.84c.516-1.7 1.5-6.466 1.5-6.466a63.122 63.122 0 0 0 .968-10.969c0-1.073-.039-2.107-.075-2.892 0 0 .047-2.218 2.043-1.237a5.823 5.823 0 0 1 2.318 4.966 15.112 15.112 0 0 1-1.189 5.953c-.1.214-.3.593-.474.932a2.851 2.851 0 0 0-.358.674 2.928 2.928 0 0 0 5.093 2.773 8.81 8.81 0 0 0 .807-1.37c.022-.042.042-.086.064-.13.075-.147.122-.247.122-.247a19.815 19.815 0 0 0 1.808-8.572z" class="cls-2" data-name="Path 615" transform="translate(-5.782 -2.891)"/>
        <path id="Path_616" d="M238.057 361.11a2.925 2.925 0 0 0-1.7.555 16.435 16.435 0 0 1-17.745 0 2.917 2.917 0 0 0-1.7-.555 2.936 2.936 0 0 0-1.705 5.326 22.24 22.24 0 0 0 24.555 0 2.934 2.934 0 0 0-1.705-5.324z" class="cls-3" data-name="Path 616" transform="translate(-102.195 -212.953)"/>
        <path id="Path_617" d="M242.637 163.782c-1.153 0-1.741-.33-1.86-1.472a2.931 2.931 0 0 0-2.92-2.637 2.811 2.811 0 0 0-.3.017 2.936 2.936 0 0 0-2.6 3.239 7.483 7.483 0 0 0 7.7 6.724 8.121 8.121 0 1 0-2.925-15.7 2.936 2.936 0 0 0 1.051 5.673 2.906 2.906 0 0 0 1.06-.2 2.251 2.251 0 1 1 .806 4.353z" class="cls-3" data-name="Path 617" transform="translate(-117.347 -62.841)"/>
        <path id="Path_618" d="M178.013 123.694a11.556 11.556 0 0 0-5.021-9.907 9.186 9.186 0 0 0-3.435-1.32h-.064l-.322-.047a1.791 1.791 0 0 1-1.386-1.6V95.332c0-6.735-5.362-14.016-14.712-19.983-8.6-5.484-19.242-8.889-27.78-8.889-7.872 0-18.513 3.4-27.106 8.676a43.115 43.115 0 0 0-10.858 9.119c-3 3.69-4.525 7.417-4.525 11.091v24.644c-.053 1.054-.075 2-.075 2.884a62.829 62.829 0 0 0 .627 8.817c.3 2.523-1.78.771-1.78.771-2.842-2.681-3.125-7.126-3.125-8.753a7 7 0 0 1 .616-2.964l-.039-.017a2.875 2.875 0 0 0 .2-1.048 2.931 2.931 0 0 0-5.759-.765 12.954 12.954 0 0 0-.9 4.783 18.237 18.237 0 0 0 3.631 11.53 13.567 13.567 0 0 0 7.342 4.741 3.688 3.688 0 0 1 2.315 2.526 57.612 57.612 0 0 0 14.557 23.679 41.452 41.452 0 0 0 11.645 7.922 31.675 31.675 0 0 0 26.457 0 38.559 38.559 0 0 0 6.316-3.577l-.017-.033a2.906 2.906 0 1 0-2.715-5.138l-.067.047a2.772 2.772 0 0 0-.4.277 36.326 36.326 0 0 1-2.5 1.578 26.779 26.779 0 0 1-27.727 0 40 40 0 0 1-11.723-10.52 53.1 53.1 0 0 1-8.1-15.419 57.783 57.783 0 0 1-3.017-18.455c0-.885.025-1.772.072-2.709V95.332c0-4.805 4.714-10.558 12.621-15.388 7.714-4.7 16.9-7.617 24.031-7.617s16.32 2.92 24 7.617c7.9 4.83 12.619 10.583 12.619 15.388v9.222c0 2.143-1.226 1.808-1.8 1.533l-.277-.155a55.967 55.967 0 0 0-14.523-5.34c-1.519-.363-1.567-2.185-1.567-2.185a18.43 18.43 0 0 0-31.179-13.032v.014a2.889 2.889 0 0 0 3.327 4.683l.1-.061a3.136 3.136 0 0 0 .344-.252c.2-.155.435-.341.627-.494a12.577 12.577 0 1 1-3.912 6.483.676.676 0 0 1 .039-.147 3.067 3.067 0 0 0 .147-.477 3.076 3.076 0 0 0 .061-.6 2.95 2.95 0 0 0-5.859-.48 18.427 18.427 0 0 0-.6 4.658 2.386 2.386 0 0 1-1.705 1.9 61 61 0 0 0-8.49 2.565c-.738.277-1.237.471-1.544.6a3.33 3.33 0 0 0-.324.136l-.061.028a2.947 2.947 0 0 0 1.181 5.562h.175a2.936 2.936 0 0 0 1.018-.177v.019c.238-.1.482-.2.726-.3l.726-.3a55.207 55.207 0 0 1 8.249-2.5 2.361 2.361 0 0 1 2.36 1.323 18.4 18.4 0 0 0 32.441-.261 2.36 2.36 0 0 1 2.459-.979 47.953 47.953 0 0 1 16.381 6.84 4.492 4.492 0 0 1 1.492 3.6v3.252a.375.375 0 0 0 0 .058.069.069 0 0 0 0 .022v.05c.036.8.072 1.744.072 2.726a57.783 57.783 0 0 1-3.017 18.455 53.79 53.79 0 0 1-6.7 13.456l-.6.854a2.949 2.949 0 0 0-.433.624 2.9 2.9 0 0 0 5.044 2.864 60.642 60.642 0 0 0 9.1-18.84c.516-1.7 1.5-6.466 1.5-6.466a63.122 63.122 0 0 0 .968-10.969c0-1.073-.039-2.107-.075-2.892 0 0 .047-2.218 2.043-1.237a5.823 5.823 0 0 1 2.318 4.966 15.112 15.112 0 0 1-1.189 5.953c-.1.214-.3.593-.474.932a2.849 2.849 0 0 0-.358.674 2.928 2.928 0 0 0 5.093 2.773 8.812 8.812 0 0 0 .807-1.37c.022-.042.042-.086.064-.13.075-.147.122-.247.122-.247a19.815 19.815 0 0 0 1.807-8.572z" class="cls-3" data-name="Path 618"/>
    </g>
</svg>
